{
	"info": {
		"_postman_id": "25c691dd-3cae-4c4d-885b-32f2f0b50cad",
		"name": "api-demo-symfo",
		"schema": "https://schema.getpostman.com/json/collection/v2.1.0/collection.json",
		"_exporter_id": "18087912"
	},
	"item": [
		{
			"name": "getAll",
			"request": {
				"method": "GET",
				"header": [],
				"url": {
					"raw": "{{produits}}",
					"host": [
						"{{produits}}"
					]
				}
			},
			"response": []
		},
		{
			"name": "getById",
			"request": {
				"method": "GET",
				"header": [],
				"url": {
					"raw": "{{produits}}/12",
					"host": [
						"{{produits}}"
					],
					"path": [
						"12"
					]
				}
			},
			"response": []
		},
		{
			"name": "create",
			"request": {
				"method": "POST",
				"header": [
					{
						"key": "Cache",
						"value": "",
						"type": "text",
						"disabled": true
					}
				],
				"body": {
					"mode": "raw",
					"raw": "{\r\n    \"nom\": \"test\",\r\n    \"description\": \"description de test\",\r\n    \"prix\": 12.50\r\n}",
					"options": {
						"raw": {
							"language": "json"
						}
					}
				},
				"url": {
					"raw": "{{produits}}/add",
					"host": [
						"{{produits}}"
					],
					"path": [
						"add"
					]
				}
			},
			"response": []
		},
		{
			"name": "update",
			"request": {
				"method": "PUT",
				"header": [],
				"body": {
					"mode": "raw",
					"raw": "{\r\n    \"id\": 12,\r\n    \"nom\": \"Dolorem eos.\",\r\n    \"description\": \"Ut exercitationem aut vel libero et fuga dolore sed sapiente voluptate soluta est fuga recusandae nostrum delectus aut nesciunt vel et.\",\r\n    \"prix\": \"45\"\r\n}",
					"options": {
						"raw": {
							"language": "json"
						}
					}
				},
				"url": {
					"raw": "{{produits}}/update/12",
					"host": [
						"{{produits}}"
					],
					"path": [
						"update",
						"12"
					]
				}
			},
			"response": []
		},
		{
			"name": "update prix",
			"request": {
				"method": "PATCH",
				"header": [],
				"body": {
					"mode": "raw",
					"raw": "{\r\n    \"prix\": 15\r\n}",
					"options": {
						"raw": {
							"language": "json"
						}
					}
				},
				"url": {
					"raw": "{{produits}}/23",
					"host": [
						"{{produits}}"
					],
					"path": [
						"23"
					]
				}
			},
			"response": []
		},
		{
			"name": "delete",
			"request": {
				"method": "DELETE",
				"header": [],
				"url": {
					"raw": "{{produits}}/delete/23",
					"host": [
						"{{produits}}"
					],
					"path": [
						"delete",
						"23"
					]
				}
			},
			"response": []
		}
	]
}